<?xml version="1.0" encoding="UTF-8" standalone="no"?>
<!-- Created with Inkscape (http://www.inkscape.org/) -->

<svg
   xmlns:dc="http://purl.org/dc/elements/1.1/"
   xmlns:cc="http://creativecommons.org/ns#"
   xmlns:rdf="http://www.w3.org/1999/02/22-rdf-syntax-ns#"
   xmlns:svg="http://www.w3.org/2000/svg"
   xmlns="http://www.w3.org/2000/svg"
   xmlns:sodipodi="http://sodipodi.sourceforge.net/DTD/sodipodi-0.dtd"
   xmlns:inkscape="http://www.inkscape.org/namespaces/inkscape"
   version="1.1"
   id="svg2"
   width="512"
   height="512"
   viewBox="0 0 512 512"
   sodipodi:docname="cockpit.svg"
   inkscape:version="0.92.1 r"
   inkscape:export-filename="/home/flo/Work/Projects/struggler/assets/cockpit.png"
   inkscape:export-xdpi="96"
   inkscape:export-ydpi="96">
  <metadata
     id="metadata8">
    <rdf:RDF>
      <cc:Work
         rdf:about="">
        <dc:format>image/svg+xml</dc:format>
        <dc:type
           rdf:resource="http://purl.org/dc/dcmitype/StillImage" />
        <dc:title />
      </cc:Work>
    </rdf:RDF>
  </metadata>
  <defs
     id="defs6" />
  <sodipodi:namedview
     pagecolor="#ffffff"
     bordercolor="#666666"
     borderopacity="1"
     objecttolerance="10"
     gridtolerance="10"
     guidetolerance="10"
     inkscape:pageopacity="0"
     inkscape:pageshadow="2"
     inkscape:window-width="1920"
     inkscape:window-height="1025"
     id="namedview4"
     showgrid="true"
     inkscape:snap-nodes="true"
     inkscape:snap-center="true"
     inkscape:snap-others="false"
     inkscape:snap-object-midpoints="true"
     inkscape:object-nodes="true"
     inkscape:object-paths="false"
     inkscape:snap-intersection-paths="false"
     inkscape:snap-smooth-nodes="false"
     inkscape:zoom="1"
     inkscape:cx="319.36471"
     inkscape:cy="147.81768"
     inkscape:window-x="0"
     inkscape:window-y="27"
     inkscape:window-maximized="1"
     inkscape:current-layer="svg2"
     inkscape:lockguides="false">
    <inkscape:grid
       type="xygrid"
       id="grid4487"
       empspacing="4"
       spacingx="16"
       spacingy="16" />
  </sodipodi:namedview>
  <rect
     style="opacity:1;fill:#004080;fill-opacity:1;stroke:none;stroke-width:1;stroke-miterlimit:4;stroke-dasharray:none;stroke-opacity:1"
     id="rect5808"
     width="96"
     height="320"
     x="0"
     y="96" />
  <rect
     y="96"
     x="416"
     height="320"
     width="96"
     id="rect5810"
     style="opacity:1;fill:#004080;fill-opacity:1;stroke:none;stroke-width:1;stroke-miterlimit:4;stroke-dasharray:none;stroke-opacity:1" />
  <path
     style="fill:#ffffff;fill-opacity:1;fill-rule:evenodd;stroke:none;stroke-width:1.4545455px;stroke-linecap:butt;stroke-linejoin:miter;stroke-opacity:1"
     d="M 320,192 352,160 384,0 h 64 l 64,64 v 64 l -64,64 v 128 l 64,64 v 64 l -64,64 H 64 L 0,448 V 384 L 64,320 V 192 L 0,128 V 64 L 64,0 h 64 l 32,160 32,32 z"
     id="path4489"
     inkscape:connector-curvature="0"
     sodipodi:nodetypes="ccccccccccccccccccccccc" />
  <path
     style="fill:#ff4000;fill-opacity:1;fill-rule:evenodd;stroke:none;stroke-width:1px;stroke-linecap:butt;stroke-linejoin:miter;stroke-opacity:1"
     d="M 160,160 48,176 64,192 176,176 Z"
     id="path4545"
     inkscape:connector-curvature="0"
     sodipodi:nodetypes="ccccc" />
  <path
     style="fill:#ff4000;fill-opacity:1;fill-rule:evenodd;stroke:none;stroke-width:1px;stroke-linecap:butt;stroke-linejoin:miter;stroke-opacity:1"
     d="m 352,160 112,16 -16,16 -112,-16 z"
     id="path4547"
     inkscape:connector-curvature="0"
     sodipodi:nodetypes="ccccc" />
  <g
     id="g4580"
     transform="translate(-28,-20)">
    <path
       sodipodi:nodetypes="ccccc"
       inkscape:connector-curvature="0"
       id="rect4549"
       d="m 96,116 4,4 v 24 l -4,-4 z"
       style="opacity:1;fill:#ff4000;fill-opacity:1;stroke:none;stroke-width:1.11803401;stroke-miterlimit:4;stroke-dasharray:none;stroke-opacity:1" />
    <path
       sodipodi:nodetypes="ccccc"
       inkscape:connector-curvature="0"
       id="rect4551"
       d="m 104,124 4,4 v 28 l -4,-4 z"
       style="opacity:1;fill:#ff4000;fill-opacity:1;stroke:none;stroke-width:1.08012342;stroke-miterlimit:4;stroke-dasharray:none;stroke-opacity:1" />
    <path
       sodipodi:nodetypes="ccccc"
       inkscape:connector-curvature="0"
       id="rect4553"
       d="m 116,128 4,-4 v 28 l -4,4 z"
       style="opacity:1;fill:#ff4000;fill-opacity:1;stroke:none;stroke-width:1.08012342;stroke-miterlimit:4;stroke-dasharray:none;stroke-opacity:1" />
    <path
       sodipodi:nodetypes="ccccc"
       inkscape:connector-curvature="0"
       id="rect4555"
       d="m 124,120 4,-4 v 24 l -4,4 z"
       style="opacity:1;fill:#ff4000;fill-opacity:1;stroke:none;stroke-width:1.11803401;stroke-miterlimit:4;stroke-dasharray:none;stroke-opacity:1" />
    <path
       sodipodi:nodetypes="ccccccccccccccccc"
       inkscape:connector-curvature="0"
       id="path4561"
       d="m 120,120 12,-12 V 96 L 120,84 H 104 L 92,96 v 12 l 12,12 v -4 l -8,-8 V 96 l 8,-8 h 16 l 8,8 v 12 l -8,8 z"
       style="fill:#ff4000;fill-opacity:1;fill-rule:evenodd;stroke:none;stroke-width:1px;stroke-linecap:butt;stroke-linejoin:miter;stroke-opacity:1" />
    <path
       sodipodi:nodetypes="cccc"
       inkscape:connector-curvature="0"
       id="path4565"
       d="m 116,104 8,-4 v -4 z"
       style="fill:#ff4000;fill-opacity:1;fill-rule:evenodd;stroke:none;stroke-width:1px;stroke-linecap:butt;stroke-linejoin:miter;stroke-opacity:1" />
    <path
       sodipodi:nodetypes="cccc"
       inkscape:connector-curvature="0"
       id="path4567"
       d="m 100,96 v 4 l 8,4 z"
       style="opacity:1;vector-effect:none;fill:#ff4000;fill-opacity:1;fill-rule:evenodd;stroke:none;stroke-width:1px;stroke-linecap:butt;stroke-linejoin:miter;stroke-miterlimit:4;stroke-dasharray:none;stroke-dashoffset:0;stroke-opacity:1" />
  </g>
  <g
     transform="translate(316,-20)"
     id="g4596">
    <path
       style="opacity:1;fill:#ff4000;fill-opacity:1;stroke:none;stroke-width:1.11803401;stroke-miterlimit:4;stroke-dasharray:none;stroke-opacity:1"
       d="m 96,116 4,4 v 24 l -4,-4 z"
       id="path4582"
       inkscape:connector-curvature="0"
       sodipodi:nodetypes="ccccc" />
    <path
       style="opacity:1;fill:#ff4000;fill-opacity:1;stroke:none;stroke-width:1.08012342;stroke-miterlimit:4;stroke-dasharray:none;stroke-opacity:1"
       d="m 104,124 4,4 v 28 l -4,-4 z"
       id="path4584"
       inkscape:connector-curvature="0"
       sodipodi:nodetypes="ccccc" />
    <path
       style="opacity:1;fill:#ff4000;fill-opacity:1;stroke:none;stroke-width:1.08012342;stroke-miterlimit:4;stroke-dasharray:none;stroke-opacity:1"
       d="m 116,128 4,-4 v 28 l -4,4 z"
       id="path4586"
       inkscape:connector-curvature="0"
       sodipodi:nodetypes="ccccc" />
    <path
       style="opacity:1;fill:#ff4000;fill-opacity:1;stroke:none;stroke-width:1.11803401;stroke-miterlimit:4;stroke-dasharray:none;stroke-opacity:1"
       d="m 124,120 4,-4 v 24 l -4,4 z"
       id="path4588"
       inkscape:connector-curvature="0"
       sodipodi:nodetypes="ccccc" />
    <path
       style="fill:#ff4000;fill-opacity:1;fill-rule:evenodd;stroke:none;stroke-width:1px;stroke-linecap:butt;stroke-linejoin:miter;stroke-opacity:1"
       d="m 120,120 12,-12 V 96 L 120,84 H 104 L 92,96 v 12 l 12,12 v -4 l -8,-8 V 96 l 8,-8 h 16 l 8,8 v 12 l -8,8 z"
       id="path4590"
       inkscape:connector-curvature="0"
       sodipodi:nodetypes="ccccccccccccccccc" />
    <path
       style="fill:#ff4000;fill-opacity:1;fill-rule:evenodd;stroke:none;stroke-width:1px;stroke-linecap:butt;stroke-linejoin:miter;stroke-opacity:1"
       d="m 116,104 8,-4 v -4 z"
       id="path4592"
       inkscape:connector-curvature="0"
       sodipodi:nodetypes="cccc" />
    <path
       style="opacity:1;vector-effect:none;fill:#ff4000;fill-opacity:1;fill-rule:evenodd;stroke:none;stroke-width:1px;stroke-linecap:butt;stroke-linejoin:miter;stroke-miterlimit:4;stroke-dasharray:none;stroke-dashoffset:0;stroke-opacity:1"
       d="m 100,96 v 4 l 8,4 z"
       id="path4594"
       inkscape:connector-curvature="0"
       sodipodi:nodetypes="cccc" />
  </g>
  <path
     style="opacity:1;vector-effect:none;fill:#0180ff;fill-opacity:1;fill-rule:evenodd;stroke:none;stroke-width:1px;stroke-linecap:butt;stroke-linejoin:miter;stroke-miterlimit:4;stroke-dasharray:none;stroke-dashoffset:0;stroke-opacity:1"
     d="M 192,128 128,264.13856 V 384 l 64,64 h 128 l 64,-64 V 256 L 320,128 Z"
     id="path4618"
     inkscape:connector-curvature="0"
     sodipodi:nodetypes="ccccccccc" />
  <path
     style="opacity:1;vector-effect:none;fill:#41a0ff;fill-opacity:1;fill-rule:evenodd;stroke:none;stroke-width:1px;stroke-linecap:butt;stroke-linejoin:miter;stroke-miterlimit:4;stroke-dasharray:none;stroke-dashoffset:0;stroke-opacity:1"
     d="m 224,128 h 64 l 64,192 -32,64 H 192 l -32,-64 z"
     id="path4608"
     inkscape:connector-curvature="0"
     sodipodi:nodetypes="ccccccc" />
</svg>
