{
  "behaviour": 0,
  "force_threshold": 20.0,
  "rectangles": [[[0, 0], [3, 4]]],
  "data_connectors": [
    [-1.0, -2.0],
    [0.0, -2.0],
    [1.0, -2.0],
    [-1.5, -1.5],
    [1.5, -1.5],
    [-1.5, -0.5],
    [1.5, -0.5],
    [-1.5, 0.5],
    [1.5, 0.5],
    [-1.5, 1.5],
    [1.5, 1.5],
    [-1.0, 2.0],
    [0.0, 2.0],
    [1.0, 2.0]
  ],
  "physical_connectors": [
    [[-1.5, -2.0], 64.0],
    [[-0.5, -2.0], 64.0],
    [[0.5, -2.0], 64.0],
    [[1.5, -2.0], 64.0],
    [[-1.5, -1.0], 64.0],
    [[1.5, -1.0], 64.0],
    [[-1.5, 0.0], 64.0],
    [[1.5, 0.0], 64.0],
    [[-1.5, 1.0], 64.0],
    [[1.5, 1.0], 64.0],
    [[-1.5, 2.0], 64.0],
    [[-0.5, 2.0], 64.0],
    [[0.5, 2.0], 64.0],
    [[1.5, 2.0], 64.0]
  ]
}
